%YAML 1.1
%TAG !u! tag:unity3d.com,2011:
--- !u!74 &7400000
AnimationClip:
  m_ObjectHideFlags: 0
  m_CorrespondingSourceObject: {fileID: 0}
  m_PrefabInstance: {fileID: 0}
  m_PrefabAsset: {fileID: 0}
  m_Name: EnemyLoco_walkingLeft
  serializedVersion: 6
  m_Legacy: 0
  m_Compressed: 0
  m_UseHighQualityCurve: 1
  m_RotationCurves: []
  m_CompressedRotationCurves: []
  m_EulerCurves: []
  m_PositionCurves: []
  m_ScaleCurves: []
  m_FloatCurves: []
  m_PPtrCurves:
  - curve:
    - time: 0
      value: {fileID: 21300000, guid: 1b70799b1ae30d145ad89db5d63ac866, type: 3}
    - time: 0.083333336
      value: {fileID: 21300000, guid: 119a180816e66f54eb8b3d1bb23a5da1, type: 3}
    - time: 0.16666667
      value: {fileID: 21300000, guid: 01e92dc1822663441b9d648174d90d81, type: 3}
    - time: 0.25
      value: {fileID: 21300000, guid: de1bd75ca8f79024e967e828785f090e, type: 3}
    - time: 0.33333334
      value: {fileID: 21300000, guid: ff4cf1879a2a58743b8f6014f82dc0e4, type: 3}
    - time: 0.41666666
      value: {fileID: 21300000, guid: e84827bc5f433e846b2d2582b81e5cd3, type: 3}
    - time: 0.5
      value: {fileID: 21300000, guid: 526d6f99d4d12474ab42863a344f0538, type: 3}
    - time: 0.5833333
      value: {fileID: 21300000, guid: 6167249f3d89e514d9d019ea731c160a, type: 3}
    attribute: m_Sprite
    path: 
    classID: 212
    script: {fileID: 0}
  m_SampleRate: 12
  m_WrapMode: 0
  m_Bounds:
    m_Center: {x: 0, y: 0, z: 0}
    m_Extent: {x: 0, y: 0, z: 0}
  m_ClipBindingConstant:
    genericBindings:
    - serializedVersion: 2
      path: 0
      attribute: 0
      script: {fileID: 0}
      typeID: 212
      customType: 23
      isPPtrCurve: 1
    pptrCurveMapping:
    - {fileID: 21300000, guid: 1b70799b1ae30d145ad89db5d63ac866, type: 3}
    - {fileID: 21300000, guid: 119a180816e66f54eb8b3d1bb23a5da1, type: 3}
    - {fileID: 21300000, guid: 01e92dc1822663441b9d648174d90d81, type: 3}
    - {fileID: 21300000, guid: de1bd75ca8f79024e967e828785f090e, type: 3}
    - {fileID: 21300000, guid: ff4cf1879a2a58743b8f6014f82dc0e4, type: 3}
    - {fileID: 21300000, guid: e84827bc5f433e846b2d2582b81e5cd3, type: 3}
    - {fileID: 21300000, guid: 526d6f99d4d12474ab42863a344f0538, type: 3}
    - {fileID: 21300000, guid: 6167249f3d89e514d9d019ea731c160a, type: 3}
  m_AnimationClipSettings:
    serializedVersion: 2
    m_AdditiveReferencePoseClip: {fileID: 0}
    m_AdditiveReferencePoseTime: 0
    m_StartTime: 0
    m_StopTime: 0.6666666
    m_OrientationOffsetY: 0
    m_Level: 0
    m_CycleOffset: 0
    m_HasAdditiveReferencePose: 0
    m_LoopTime: 1
    m_LoopBlend: 0
    m_LoopBlendOrientation: 0
    m_LoopBlendPositionY: 0
    m_LoopBlendPositionXZ: 0
    m_KeepOriginalOrientation: 0
    m_KeepOriginalPositionY: 1
    m_KeepOriginalPositionXZ: 0
    m_HeightFromFeet: 0
    m_Mirror: 0
  m_EditorCurves: []
  m_EulerEditorCurves: []
  m_HasGenericRootTransform: 0
  m_HasMotionFloatCurves: 0
  m_Events: []
