%YAML 1.1
%TAG !u! tag:unity3d.com,2011:
--- !u!74 &7400000
AnimationClip:
  m_ObjectHideFlags: 0
  m_CorrespondingSourceObject: {fileID: 0}
  m_PrefabInstance: {fileID: 0}
  m_PrefabAsset: {fileID: 0}
  m_Name: EnemyMedico_walkingBot
  serializedVersion: 6
  m_Legacy: 0
  m_Compressed: 0
  m_UseHighQualityCurve: 1
  m_RotationCurves: []
  m_CompressedRotationCurves: []
  m_EulerCurves: []
  m_PositionCurves: []
  m_ScaleCurves: []
  m_FloatCurves: []
  m_PPtrCurves:
  - curve:
    - time: 0
      value: {fileID: 21300000, guid: a38f588ea0558344197b771567737c31, type: 3}
    - time: 0.083333336
      value: {fileID: 21300000, guid: 9658d8a6ec21ce646ad63743395a0075, type: 3}
    - time: 0.16666667
      value: {fileID: 21300000, guid: ab8a2857bab8bf5408a8beb954dde416, type: 3}
    - time: 0.25
      value: {fileID: 21300000, guid: cf7b314c882424e4db5ce35b90a04c31, type: 3}
    - time: 0.33333334
      value: {fileID: 21300000, guid: 9bc61cbb6f67ec34e8134124f8e783f4, type: 3}
    - time: 0.41666666
      value: {fileID: 21300000, guid: 6a00d955cac137941a0e8a1ecb8c62fd, type: 3}
    - time: 0.5
      value: {fileID: 21300000, guid: e4e8909b5f6e53243ab5506643ce2307, type: 3}
    attribute: m_Sprite
    path: 
    classID: 212
    script: {fileID: 0}
  m_SampleRate: 12
  m_WrapMode: 0
  m_Bounds:
    m_Center: {x: 0, y: 0, z: 0}
    m_Extent: {x: 0, y: 0, z: 0}
  m_ClipBindingConstant:
    genericBindings:
    - serializedVersion: 2
      path: 0
      attribute: 0
      script: {fileID: 0}
      typeID: 212
      customType: 23
      isPPtrCurve: 1
    pptrCurveMapping:
    - {fileID: 21300000, guid: a38f588ea0558344197b771567737c31, type: 3}
    - {fileID: 21300000, guid: 9658d8a6ec21ce646ad63743395a0075, type: 3}
    - {fileID: 21300000, guid: ab8a2857bab8bf5408a8beb954dde416, type: 3}
    - {fileID: 21300000, guid: cf7b314c882424e4db5ce35b90a04c31, type: 3}
    - {fileID: 21300000, guid: 9bc61cbb6f67ec34e8134124f8e783f4, type: 3}
    - {fileID: 21300000, guid: 6a00d955cac137941a0e8a1ecb8c62fd, type: 3}
    - {fileID: 21300000, guid: e4e8909b5f6e53243ab5506643ce2307, type: 3}
  m_AnimationClipSettings:
    serializedVersion: 2
    m_AdditiveReferencePoseClip: {fileID: 0}
    m_AdditiveReferencePoseTime: 0
    m_StartTime: 0
    m_StopTime: 0.5833333
    m_OrientationOffsetY: 0
    m_Level: 0
    m_CycleOffset: 0
    m_HasAdditiveReferencePose: 0
    m_LoopTime: 1
    m_LoopBlend: 0
    m_LoopBlendOrientation: 0
    m_LoopBlendPositionY: 0
    m_LoopBlendPositionXZ: 0
    m_KeepOriginalOrientation: 0
    m_KeepOriginalPositionY: 1
    m_KeepOriginalPositionXZ: 0
    m_HeightFromFeet: 0
    m_Mirror: 0
  m_EditorCurves: []
  m_EulerEditorCurves: []
  m_HasGenericRootTransform: 0
  m_HasMotionFloatCurves: 0
  m_Events: []
